…
``` r
arrange(sd.eco, sd.eco$median_household_income, sd.eco$median_home_value)
```

    # A tibble: 107 × 24
       zipcode zipcode…¹ major…² post_…³ common_c…⁴ county state   lat   lng timez…⁵
       <chr>   <chr>     <chr>   <chr>       <blob> <chr>  <chr> <dbl> <dbl> <chr>  
     1 91931   PO Box    Guatay  Guatay… <raw 18 B> San D… CA     32.8 -117. Pacific
     2 92113   Standard  San Di… San Di… <raw 21 B> San D… CA     32.7 -117. Pacific
     3 92173   Standard  San Ys… San Ys… <raw 31 B> San D… CA     32.6 -117. Pacific
     4 92066   Standard  Ranchi… Ranchi… <raw 40 B> San D… CA     33.3 -116. Pacific
     5 92105   Standard  San Di… San Di… <raw 21 B> San D… CA     32.7 -117. Pacific
     6 91950   Standard  Nation… Nation… <raw 25 B> San D… CA     32.7 -117. Pacific
     7 92086   Standard  Warner… Warner… <raw 31 B> San D… CA     33.3 -117. Pacific
     8 91963   Standard  Potrero Potrer… <raw 19 B> San D… CA     32.6 -117. Pacific
     9 92004   Standard  Borreg… Borreg… <raw 32 B> San D… CA     33.1 -116. Pacific
    10 92102   Standard  San Di… San Di… <raw 21 B> San D… CA     32.7 -117. Pacific
    # … with 97 more rows, 14 more variables: radius_in_miles <dbl>,
    #   area_code_list <blob>, population <int>, population_density <dbl>,
    #   land_area_in_sqmi <dbl>, water_area_in_sqmi <dbl>, housing_units <int>,
    #   occupied_housing_units <int>, median_home_value <int>,
    #   median_household_income <int>, bounds_west <dbl>, bounds_east <dbl>,
    #   bounds_north <dbl>, bounds_south <dbl>, and abbreviated variable names
    #   ¹​zipcode_type, ²​major_city, ³​post_office_city, ⁴​common_city_list, …
…
